genius_simple.vcd
$date
   Sun Dec  7 16:16:05 2025
$end

$version
  2025.2
  $dumpfile ("genius_simple.vcd") 
$end

$timescale
  1ps
$end

$scope module genius_fsm_tb $end
$var reg 1 ! clk $end
$var reg 1 " rst_n $end
$var reg 1 # start $end
$var reg 4 $ buttom [3:0] $end
$var reg 2 % level [1:0] $end
$var reg 4 & leds [3:0] $end
$var reg 6 ' score [5:0] $end
$scope module uut $end
$var wire 1 ( clk $end
$var wire 1 ) rst_n $end
$var wire 1 * speed $end
$var wire 1 + start $end
$var wire 2 , level [1:0] $end
$var wire 1 - mode $end
$var wire 4 . buttom [3:0] $end
$var reg 4 & leds [3:0] $end
$var reg 6 ' score [5:0] $end
$var reg 4 / current_state $end
$var reg 4 0 next_state $end
$var reg 32 1 free_running_counter [31:0] $end
$var reg 4 2 reg_buttom [3:0] $end
$var reg 1 3 buttom_pressed $end
$var reg 32 4 saved_seed [31:0] $end
$var reg 6 5 step_counter [5:0] $end
$var reg 6 6 round_counter [5:0] $end
$var reg 4 7 lfsr_decoded [3:0] $end
$var reg 1 8 verif_flag $end
$var reg 32 9 timer_counter [31:0] $end
$var reg 1 : timer_over $end
$var reg 6 ; level_ [5:0] $end
$var reg 32 < lfsr_reg [31:0] $end
$var reg 1 = load_seed $end
$var reg 1 > lfsr_en $end
$var reg 1 ? feedback $end
$upscope $end
$scope task jogar $end
$var reg 4 @ valor [3:0] $end
$upscope $end
$upscope $end
$enddefinitions $end

#0
$dumpvars
0!
0"
0#
b0 $
b0 %
b0 &
b0 '
0(
0)
0*
0+
b0 ,
0-
b0 .
b0 /
b0 0
b0 1
b0 2
03
b1 4
b0 5
b1 6
b1000 7
08
b0 9
1:
b1000 ;
b11011110101011011011111011101111 <
0=
0>
0?
bx @
$end

#5000
1!
1(

#10000
0!
0(

#15000
1!
1(

#20000
0!
0(

#25000
1!
1(

#30000
0!
0(

#35000
1!
1(

#40000
0!
0(

#45000
1!
1(

#50000
0!
0(

#55000
1!
1(

#60000
0!
0(

#65000
1!
1(

#70000
0!
0(

#75000
1!
1(

#80000
0!
0(

#85000
1!
1(

#90000
0!
0(

#95000
1!
1"
1(
1)
b1 1

#100000
0!
0(

#105000
1!
1(
b10 1

#110000
0!
0(

#115000
1!
1(
b11 1

#120000
0!
0(

#125000
1!
1(
b100 1

#130000
0!
0(

#135000
1!
1(
b101 1

#140000
0!
0(

#145000
1!
1(
b110 1

#150000
0!
0(

#155000
1!
1(
b111 1

#160000
0!
0(

#165000
1!
1(
b1000 1

#170000
0!
0(

#175000
1!
1(
b1001 1

#180000
0!
0(

#185000
1!
1(
b1010 1

#190000
0!
0(

#195000
1!
1#
1(
1+
b1 0
b1011 1

#200000
0!
0(

#205000
1!
0#
1(
0+
b1 /
b10 0
b1100 1
b10 @

#210000
0!
0(

#215000
1!
1(
b10 /
b11 0
b1101 1
1=

#220000
0!
0(

#225000
1!
b10 &
1(
b11 /
b100 0
b1110 1
b10 7
b1 <
0=
1?

#230000
0!
0(

#235000
1!
b10 &
1(
b100 /
b1111 1
b1010 9
0:

#240000
0!
0(

#245000
1!
1(
b10000 1
b1001 9

#250000
0!
0(

#255000
1!
1(
b10001 1
b1000 9

#260000
0!
0(

#265000
1!
1(
b10010 1
b111 9

#270000
0!
0(

#275000
1!
1(
b10011 1
b110 9

#280000
0!
0(

#285000
1!
1(
b10100 1
b101 9

#290000
0!
0(

#295000
1!
1(
b10101 1
b100 9

#300000
0!
0(

#305000
1!
1(
b10110 1
b11 9

#310000
0!
0(

#315000
1!
1(
b10111 1
b10 9

#320000
0!
0(

#325000
1!
1(
b11000 1
b1 9

#330000
0!
0(

#335000
1!
1(
b101 0
b11001 1
b0 9
1:

#340000
0!
0(

#345000
1!
b0 &
1(
b101 /
b110 0
b11010 1
1>

#350000
0!
0(

#355000
1!
1(
b110 /
b10 0
b11011 1
b1 5
b1000 7
b11 <
0>
0?

#360000
0!
0(

#365000
1!
1(
b10 /
b111 0
b11100 1
18
1=

#370000
0!
0(

#375000
1!
1(
b111 /
b11101 1
b0 5
b10 7
b1 <
0=
1?

#380000
0!
b10 $
0(
b10 .
b1000 0
13

#385000
1!
1(
b1000 /
b101 0
b11110 1
b10 2
03

#390000
0!
0(

#395000
1!
1(
b101 /
b110 0
b11111 1
1>

#400000
0!
0(

#405000
1!
b0 $
1(
b0 .
b110 /
b1010 0
b100000 1
b0 2
b1 5
b1000 7
b11 <
0>
0?

#410000
0!
0(

#415000
1!
1(
b1010 /
b10 0
b100001 1
08

#420000
0!
0(

#425000
1!
b1 '
1(
b10 /
b11 0
b100010 1
b10 6
1=

#430000
0!
0(

#435000
1!
b10 &
1(
b11 /
b100 0
b100011 1
b0 5
b10 7
b1 <
0=
1?

#440000
0!
0(

#445000
1!
b10 &
1(
b100 /
b100100 1
b1010 9
0:

#450000
0!
0(

#455000
1!
1(
b100101 1
b1001 9

#460000
0!
0(

#465000
1!
1(
b100110 1
b1000 9

#470000
0!
0(

#475000
1!
1(
b100111 1
b111 9

#480000
0!
0(

#485000
1!
1(
b101000 1
b110 9

#490000
0!
0(

#495000
1!
1(
b101001 1
b101 9

#500000
0!
0(

#505000
1!
1(
b101010 1
b100 9

#510000
0!
0(

#515000
1!
1(
b101011 1
b11 9

#520000
0!
0(

#525000
1!
1(
b101100 1
b10 9

#530000
0!
0(

#535000
1!
1(
b101101 1
b1 9

#540000
0!
0(

#545000
1!
1(
b101 0
b101110 1
b0 9
1:

#550000
0!
0(

#555000
1!
b0 &
1(
b101 /
b11 0
b101111 1
1>

#560000
0!
0(

#565000
1!
b1000 &
1(
b11 /
b100 0
b110000 1
b1 5
b1000 7
b11 <
0>
0?

#570000
0!
0(

#575000
1!
b1000 &
1(
b100 /
b110001 1
b1010 9
0:

#580000
0!
0(

#585000
1!
1(
b110010 1
b1001 9

#590000
0!
0(

#595000
1!
1(
b110011 1
b1000 9

#600000
0!
0(

#605000
1!
1(
b110100 1
b111 9

#610000
0!
0(

#615000
1!
1(
b110101 1
b110 9

#620000
0!
0(

#625000
1!
1(
b110110 1
b101 9

#630000
0!
0(

#635000
1!
1(
b110111 1
b100 9

#640000
0!
0(

#645000
1!
1(
b111000 1
b11 9

#650000
0!
0(

#655000
1!
1(
b111001 1
b10 9

#660000
0!
0(

#665000
1!
1(
b111010 1
b1 9

#670000
0!
0(

#675000
1!
1(
b101 0
b111011 1
b0 9
1:

#680000
0!
0(

#685000
1!
b0 &
1(
b101 /
b110 0
b111100 1
1>

#690000
0!
0(

#695000
1!
1(
b110 /
b10 0
b111101 1
b10 5
b100 7
b110 <
0>
1?

#700000
0!
0(

#705000
1!
1(
b10 /
b111 0
b111110 1
18
1=

#710000
0!
0(

#715000
1!
1(
b111 /
b111111 1
b0 5
b10 7
b1 <
0=

#720000
0!
b10 $
0(
b10 .
b1000 0
13

#725000
1!
1(
b1000 /
b101 0
b1000000 1
b10 2
03

#730000
0!
0(

#735000
1!
1(
b101 /
b111 0
b1000001 1
1>

#740000
0!
0(

#745000
1!
b0 $
1(
b0 .
b111 /
b111 0
b1000010 1
b0 2
b1 5
b1000 7
b11 <
0>
0?

#750000
0!
0(

#755000
1!
1(
b1000011 1

#760000
0!
0(

#765000
1!
1(
b1000100 1

#770000
0!
0(

#775000
1!
1(
b1000101 1

#780000
0!
0(

#785000
1!
1(
b1000110 1

#790000
0!
0(

#795000
1!
1(
b1000111 1
b1000 @

#800000
0!
b1000 $
0(
b1000 .
b1000 0
13

#805000
1!
1(
b1000 /
b101 0
b1001000 1
b1000 2
03

#810000
0!
0(

#815000
1!
1(
b101 /
b110 0
b1001001 1
1>

#820000
0!
0(

#825000
1!
b0 $
1(
b0 .
b110 /
b1010 0
b1001010 1
b0 2
b10 5
b100 7
b110 <
0>
1?

#830000
0!
0(

#835000
1!
1(
b1010 /
b10 0
b1001011 1
08

#840000
0!
0(

#845000
1!
b10 '
1(
b10 /
b11 0
b1001100 1
b11 6
1=

#850000
0!
0(

#855000
1!
b10 &
1(
b11 /
b100 0
b1001101 1
b0 5
b10 7
b1 <
0=

#860000
0!
0(

#865000
1!
b10 &
1(
b100 /
b1001110 1
b1010 9
0:

#870000
0!
0(

#875000
1!
1(
b1001111 1
b1001 9

#880000
0!
0(

#885000
1!
1(
b1010000 1
b1000 9

#890000
0!
0(

#895000
1!
1(
b1010001 1
b111 9

#900000
0!
0(

#905000
1!
1(
b1010010 1
b110 9

#910000
0!
0(

#915000
1!
1(
b1010011 1
b101 9

#920000
0!
0(

#925000
1!
1(
b1010100 1
b100 9

#930000
0!
0(

#935000
1!
1(
b1010101 1
b11 9

#940000
0!
0(

#945000
1!
1(
b1010110 1
b10 9

#950000
0!
0(

#955000
1!
1(
b1010111 1
b1 9

#960000
0!
0(

#965000
1!
1(
b101 0
b1011000 1
b0 9
1:

#970000
0!
0(

#975000
1!
b0 &
1(
b101 /
b11 0
b1011001 1
1>

#980000
0!
0(

#985000
1!
b1000 &
1(
b11 /
b100 0
b1011010 1
b1 5
b1000 7
b11 <
0>
0?

#990000
0!
0(

#995000
1!
b1000 &
1(
b100 /
b1011011 1
b1010 9
0:

#1000000
0!
0(

#1005000
1!
1(
b1011100 1
b1001 9

#1010000
0!
0(

#1015000
1!
1(
b1011101 1
b1000 9

#1020000
0!
0(

#1025000
1!
1(
b1011110 1
b111 9

#1030000
0!
0(

#1035000
1!
1(
b1011111 1
b110 9

#1040000
0!
0(

#1045000
1!
1(
b1100000 1
b101 9

#1050000
0!
0(

#1055000
1!
1(
b1100001 1
b100 9

#1060000
0!
0(

#1065000
1!
1(
b1100010 1
b11 9

#1070000
0!
0(

#1075000
1!
1(
b1100011 1
b10 9
b10 @

#1080000
0!
0(

#1085000
1!
1(
b1100100 1
b1 9

#1090000
0!
0(

#1095000
1!
1(
b101 0
b1100101 1
b0 9
1:

#1100000
0!
0(

#1105000
1!
b0 &
1(
b101 /
b11 0
b1100110 1
1>

#1110000
0!
0(

#1115000
1!
b100 &
1(
b11 /
b100 0
b1100111 1
b10 5
b100 7
b110 <
0>
1?

#1120000
0!
0(

#1125000
1!
b100 &
1(
b100 /
b1101000 1
b1010 9
0:

#1130000
0!
0(

#1135000
1!
1(
b1101001 1
b1001 9

#1140000
0!
0(

#1145000
1!
1(
b1101010 1
b1000 9

#1150000
0!
0(

#1155000
1!
1(
b1101011 1
b111 9

#1160000
0!
0(

#1165000
1!
1(
b1101100 1
b110 9

#1170000
0!
0(

#1175000
1!
1(
b1101101 1
b101 9

#1180000
0!
0(

#1185000
1!
1(
b1101110 1
b100 9

#1190000
0!
0(

#1195000
1!
1(
b1101111 1
b11 9

#1200000
0!
0(

#1205000
1!
1(
b1110000 1
b10 9

#1210000
0!
0(

#1215000
1!
1(
b1110001 1
b1 9

#1220000
0!
0(

#1225000
1!
1(
b101 0
b1110010 1
b0 9
1:

#1230000
0!
0(

#1235000
1!
b0 &
1(
b101 /
b110 0
b1110011 1
1>

#1240000
0!
0(

#1245000
1!
1(
b110 /
b10 0
b1110100 1
b11 5
b10 7
b1101 <
0>

#1250000
0!
0(

#1255000
1!
1(
b10 /
b111 0
b1110101 1
18
1=

#1260000
0!
0(

#1265000
1!
1(
b111 /
b1110110 1
b0 5
b1 <
0=

#1270000
0!
b10 $
0(
b10 .
b1000 0
13

#1275000
1!
1(
b1000 /
b101 0
b1110111 1
b10 2
03

#1280000
0!
0(

#1285000
1!
1(
b101 /
b111 0
b1111000 1
1>

#1290000
0!
0(

#1295000
1!
b0 $
1(
b0 .
b111 /
b111 0
b1111001 1
b0 2
b1 5
b1000 7
b11 <
0>
0?

#1300000
0!
0(

#1305000
1!
1(
b1111010 1

#1310000
0!
0(

#1315000
1!
1(
b1111011 1

#1320000
0!
0(

#1325000
1!
1(
b1111100 1

#1330000
0!
0(

#1335000
1!
1(
b1111101 1

#1340000
0!
0(

#1345000
1!
1(
b1111110 1
b1000 @

#1350000
0!
b1000 $
0(
b1000 .
b1000 0
13

#1355000
1!
1(
b1000 /
b101 0
b1111111 1
b1000 2
03

#1360000
0!
0(

#1365000
1!
1(
b101 /
b111 0
b10000000 1
1>

#1370000
0!
0(

#1375000
1!
b0 $
1(
b0 .
b111 /
b111 0
b10000001 1
b0 2
b10 5
b100 7
b110 <
0>
1?

#1380000
0!
0(

#1385000
1!
1(
b10000010 1

#1390000
0!
0(

#1395000
1!
1(
b10000011 1

#1400000
0!
0(

#1405000
1!
1(
b10000100 1

#1410000
0!
0(

#1415000
1!
1(
b10000101 1

#1420000
0!
0(

#1425000
1!
1(
b10000110 1
b100 @

#1430000
0!
b100 $
0(
b100 .
b1000 0
13

#1435000
1!
1(
b1000 /
b101 0
b10000111 1
b100 2
03

#1440000
0!
0(

#1445000
1!
1(
b101 /
b110 0
b10001000 1
1>

#1450000
0!
0(

#1455000
1!
b0 $
1(
b0 .
b110 /
b1010 0
b10001001 1
b0 2
b11 5
b10 7
b1101 <
0>

#1460000
0!
0(

#1465000
1!
1(
b1010 /
b10 0
b10001010 1
08

#1470000
0!
0(

#1475000
1!
b11 '
1(
b10 /
b11 0
b10001011 1
b100 6
1=

#1480000
0!
0(

#1485000
1!
b10 &
1(
b11 /
b100 0
b10001100 1
b0 5
b1 <
0=

#1490000
0!
0(

#1495000
1!
b10 &
1(
b100 /
b10001101 1
b1010 9
0:

#1500000
0!
0(

#1505000
1!
1(
b10001110 1
b1001 9

#1510000
0!
0(

#1515000
1!
1(
b10001111 1
b1000 9

#1520000
0!
0(

#1525000
1!
1(
b10010000 1
b111 9

#1530000
0!
0(

#1535000
1!
1(
b10010001 1
b110 9

#1540000
0!
0(

#1545000
1!
1(
b10010010 1
b101 9

#1550000
0!
0(

#1555000
1!
1(
b10010011 1
b100 9

#1560000
0!
0(

#1565000
1!
1(
b10010100 1
b11 9

#1570000
0!
0(

#1575000
1!
1(
b10010101 1
b10 9

#1580000
0!
0(

#1585000
1!
1(
b10010110 1
b1 9

#1590000
0!
0(

#1595000
1!
1(
b101 0
b10010111 1
b0 9
1:

#1600000
0!
0(

#1605000
1!
b0 &
1(
b101 /
b11 0
b10011000 1
1>

#1610000
0!
0(

#1615000
1!
b1000 &
1(
b11 /
b100 0
b10011001 1
b1 5
b1000 7
b11 <
0>
0?

#1620000
0!
0(

#1625000
1!
b1000 &
1(
b100 /
b10011010 1
b1010 9
0:

#1630000
0!
0(

#1635000
1!
1(
b10011011 1
b1001 9

#1640000
0!
0(

#1645000
1!
1(
b10011100 1
b1000 9

#1650000
0!
0(

#1655000
1!
1(
b10011101 1
b111 9

#1660000
0!
0(

#1665000
1!
1(
b10011110 1
b110 9

#1670000
0!
0(

#1675000
1!
1(
b10011111 1
b101 9

#1680000
0!
0(

#1685000
1!
1(
b10100000 1
b100 9

#1690000
0!
0(

#1695000
1!
1(
b10100001 1
b11 9

#1700000
0!
0(

#1705000
1!
1(
b10100010 1
b10 9
b1111 @

#1710000
0!
0(

#1715000
1!
1(
b10100011 1
b1 9

#1720000
0!
0(

#1725000
1!
1(
b101 0
b10100100 1
b0 9
1:

#1730000
0!
0(

#1735000
1!
b0 &
1(
b101 /
b11 0
b10100101 1
1>

#1740000
0!
0(

#1745000
1!
b100 &
1(
b11 /
b100 0
b10100110 1
b10 5
b100 7
b110 <
0>
1?

#1750000
0!
0(

#1755000
1!
b100 &
1(
b100 /
b10100111 1
b1010 9
0:

#1760000
0!
0(

#1765000
1!
1(
b10101000 1
b1001 9

#1770000
0!
0(

#1775000
1!
1(
b10101001 1
b1000 9

#1780000
0!
0(

#1785000
1!
1(
b10101010 1
b111 9

#1790000
0!
0(

#1795000
1!
1(
b10101011 1
b110 9

#1800000
0!
0(

#1805000
1!
1(
b10101100 1
b101 9

#1810000
0!
0(

#1815000
1!
1(
b10101101 1
b100 9

#1820000
0!
0(

#1825000
1!
1(
b10101110 1
b11 9

#1830000
0!
0(

#1835000
1!
1(
b10101111 1
b10 9

#1840000
0!
0(

#1845000
1!
1(
b10110000 1
b1 9

#1850000
0!
0(

#1855000
1!
1(
b101 0
b10110001 1
b0 9
1:

#1860000
0!
0(

#1865000
1!
b0 &
1(
b101 /
b11 0
b10110010 1
1>

#1870000
0!
0(

#1875000
1!
b10 &
1(
b11 /
b100 0
b10110011 1
b11 5
b10 7
b1101 <
0>

#1880000
0!
0(

#1885000
1!
b10 &
1(
b100 /
b10110100 1
b1010 9
0:

#1890000
0!
0(

#1895000
1!
1(
b10110101 1
b1001 9

#1900000
0!
0(

#1905000
1!
1(
b10110110 1
b1000 9

#1910000
0!
0(

#1915000
1!
1(
b10110111 1
b111 9

#1920000
0!
0(

#1925000
1!
1(
b10111000 1
b110 9

#1930000
0!
0(

#1935000
1!
1(
b10111001 1
b101 9

#1940000
0!
0(

#1945000
1!
1(
b10111010 1
b100 9

#1950000
0!
0(

#1955000
1!
1(
b10111011 1
b11 9

#1960000
0!
0(

#1965000
1!
1(
b10111100 1
b10 9

#1970000
0!
0(

#1975000
1!
1(
b10111101 1
b1 9

#1980000
0!
0(

#1985000
1!
1(
b101 0
b10111110 1
b0 9
1:

#1990000
0!
0(

#1995000
1!
b0 &
1(
b101 /
b110 0
b10111111 1
1>

#2000000
0!
0(

#2005000
1!
1(
b110 /
b10 0
b11000000 1
b100 5
b1000 7
b11011 <
0>
0?

#2010000
0!
0(

#2015000
1!
1(
b10 /
b111 0
b11000001 1
18
1=

#2020000
0!
0(

#2025000
1!
1(
b111 /
b11000010 1
b0 5
b10 7
b1 <
0=
1?

#2030000
0!
b1111 $
0(
b1111 .
b1000 0
13

#2035000
1!
1(
b1000 /
b1001 0
b11000011 1
b1111 2
03

#2040000
0!
0(

#2045000
1!
1(
b1001 /
b0 0
b11000100 1

#2050000
0!
0(

#2055000
1!
b0 $
1(
b0 .
b0 /
b0 0
b11000101 1
b0 2

#2060000
0!
0(

#2065000
1!
b0 '
1(
b11000110 1
b1 6
08

#2070000
0!
0(

#2075000
1!
1(
b11000111 1

#2080000
0!
0(

#2085000
1!
1(
b11001000 1

#2090000
0!
0(

#2095000
1!
1(
b11001001 1

#2100000
0!
0(

#2105000
1!
1(
b11001010 1

#2110000
0!
0(

#2115000
1!
1(
b11001011 1

#2120000
0!
0(

#2125000
1!
1(
b11001100 1

#2130000
0!
0(

#2135000
1!
1(
b11001101 1

#2140000
0!
0(

#2145000
1!
1(
b11001110 1

#2150000
0!
0(

#2155000
1!
1(
b11001111 1

#2160000
0!
0(

#2165000
1!
1(
b11010000 1

#2170000
0!
0(

#2175000
1!
1(
b11010001 1

#2180000
0!
0(

#2185000
1!
1(
b11010010 1

#2190000
0!
0(

#2195000
1!
1(
b11010011 1

#2200000
0!
0(

#2205000
1!
1(
b11010100 1

#2210000
0!
0(

#2215000
1!
1(
b11010101 1

#2220000
0!
0(

#2225000
1!
1(
b11010110 1

#2230000
0!
0(

#2235000
1!
1(
b11010111 1

#2240000
0!
0(

#2245000
1!
1(
b11011000 1

#2250000
0!
0(

#2255000
1!
1(
b11011001 1

#2260000
0!
0(

#2265000
1!
1(
b11011010 1

#2270000
0!
0(

#2275000
1!
1(
b11011011 1

#2280000
0!
0(

#2285000
1!
1(
b11011100 1

#2290000
0!
0(

#2295000
1!
1(
b11011101 1

