lfsr_unit.vcd
$date
   Sun Dec  7 14:38:58 2025
$end

$version
  2025.2
  $dumpfile ("lfsr_unit.vcd") 
$end

$timescale
  1ps
$end

$scope module lfsr_tb $end
$var reg 1 ! clk $end
$var reg 1 " rst_n $end
$var reg 1 # load_seed $end
$var reg 1 $ lfsr_en $end
$var reg 32 % saved_seed [31:0] $end
$var reg 32 & lfsr_out [31:0] $end
$scope module dut $end
$var wire 1 ' clk $end
$var wire 1 ( rst_n $end
$var wire 1 ) load_seed $end
$var wire 1 * lfsr_en $end
$var wire 32 + saved_seed [31:0] $end
$var reg 32 & lfsr_out [31:0] $end
$var reg 32 , lfsr_reg [31:0] $end
$var reg 1 - feedback $end
$upscope $end
$scope begin Block59_4 $end
$var reg 32 . i [31:0] $end
$upscope $end
$scope function check_color $end
$var reg 32 / val [31:0] $end
$var reg 4 0 leds [3:0] $end
$upscope $end
$upscope $end
$enddefinitions $end

#0
$dumpvars
0!
0"
0#
0$
b1 %
b11011110101011011011111011101111 &
0'
0(
0)
0*
b1 +
b11011110101011011011111011101111 ,
0-
b0 .
bx /
bx 0
$end

#5000
1!
1'

#10000
0!
0'

#15000
1!
1"
1'
1(

#20000
0!
1#
0'
1)

#25000
1!
b1 &
1'
b1 ,
1-

#30000
0!
0#
0'
0)
b1 .
b1 /
b10 0

#35000
1!
1'

#40000
0!
1$
0'
1*

#45000
1!
b11 &
1'
b11 ,
0-

#50000
0!
0$
0'
0*
b10 .
b11 /
b1000 0

#55000
1!
1'

#60000
0!
1$
0'
1*

#65000
1!
b110 &
1'
b110 ,
1-

#70000
0!
0$
0'
0*
b11 .
b110 /
b100 0

#75000
1!
1'

#80000
0!
1$
0'
1*

#85000
1!
b1101 &
1'
b1101 ,

#90000
0!
0$
0'
0*
b100 .
b1101 /
b10 0

#95000
1!
1'

#100000
0!
1$
0'
1*

#105000
1!
b11011 &
1'
b11011 ,
0-

#110000
0!
0$
0'
0*
b101 .
b11011 /
b1000 0

#115000
1!
1'

#120000
0!
1$
0'
1*

#125000
1!
b110110 &
1'
b110110 ,
1-

#130000
0!
0$
0'
b110 .
b110110 /
b100 0
