prng_wave.vcd
$date
   Thu Nov 27 22:07:24 2025
$end

$version
  2025.1.0
  $dumpfile ("prng_wave.vcd") 
$end

$timescale
  1ps
$end

$scope module q_analog_prng_tb $end
$var reg 1 ! clk $end
$var reg 1 " rst_n $end
$var reg 1 # en $end
$var reg 31 $ x0 [30:0] $end
$var reg 31 % prng_out [30:0] $end
$scope module dut $end
$var wire 1 & clk $end
$var wire 1 ' rst_n $end
$var wire 1 ( en $end
$var wire 31 ) x0 [30:0] $end
$var reg 31 % prng_out [30:0] $end
$var reg 31 * current_x [30:0] $end
$var reg 62 + multi_res [61:0] $end
$var reg 31 , upper_bits [30:0] $end
$var reg 31 - lower_bits [30:0] $end
$var reg 32 . sum_parts [31:0] $end
$var reg 32 / sum_plus_one [31:0] $end
$var reg 1 0 sel_correction $end
$var reg 31 1 next_val_calc [30:0] $end
$var reg 31 2 next_val_mux [30:0] $end
$upscope $end
$upscope $end
$enddefinitions $end

#0
$dumpvars
0!
0"
0#
b0 $
b0 %
0&
0'
0(
b0 )
b0 *
b1 +
b0 ,
b1 -
b1 .
b10 /
00
b1 1
b0 2
$end

#5000
1!
1&

#10000
0!
0&

#15000
1!
1&

#20000
0!
1"
b11000000111001 $
0&
1'
b11000000111001 )
b11000000111001 2

#25000
1!
b11000000111001 %
1&
b11000000111001 *
b110000010001010000111010 +
b110000010001010000111010 -
b110000010001010000111010 .
b110000010001010000111011 /
b110000010001010000111010 1

#30000
0!
1#
0&
1(
b110000010001010000111010 2

#35000
1!
b110000010001010000111010 %
1&
b110000010001010000111010 *
b1100000101000100011111110000111011 +
b110 ,
b101000100011111110000111011 -
b101000100011111110001000001 .
b101000100011111110001000010 /
b101000100011111110001000001 1
b101000100011111110001000001 2

#40000
0!
0&

#45000
1!
b101000100011111110001000001 %
1&
b101000100011111110001000001 *
b1010001001101000000110000000001000010 +
b101000 ,
b1001101000000110000000001000010 -
b1001101000000110000000001101010 .
b1001101000000110000000001101011 /
b1001101000000110000000001101010 1
b1001101000000110000000001101010 2

#50000
0!
0&

#55000
1!
b1001101000000110000000001101010 %
1&
b1001101000000110000000001101010 *
b10011010001011001000001001010100001101011 +
b1001101000 ,
b1011001000001001010100001101011 -
b1011001000001001010101011010011 .
b1011001000001001010101011010100 /
b1011001000001001010101011010011 1
b1011001000001001010101011010011 2

#60000
0!
0&

#65000
1!
b1011001000001001010101011010011 %
1&
b1011001000001001010101011010011 *
b10110010001101011101011111111011011010100 +
b1011001000 ,
b1101011101011111111011011010100 -
b1101011101011111111100110011100 .
b1101011101011111111100110011101 /
b1101011101011111111100110011100 1
b1101011101011111111100110011100 2

#70000
0!
0&

#75000
1!
b1101011101011111111100110011100 %
1&
b1101011101011111111100110011100 *
b11010111100101011100101100110100110011101 +
b1101011110 ,
b101011100101100110100110011101 -
b101011100101100110110011111011 .
b101011100101100110110011111100 /
b101011100101100110110011111011 1
b101011100101100110110011111011 2

#80000
0!
0&

#85000
1!
b101011100101100110110011111011 %
1&
b101011100101100110110011111011 *
b1010111010000101010010100101100011111100 +
b101011101 ,
b101010010100101100011111100 -
b101010010100101101001011001 .
b101010010100101101001011010 /
b101010010100101101001011001 1
b101010010100101101001011001 2

#90000
0!
0&

#95000
1!
b101010010100101101001011001 %
1&
b101010010100101101001011001 *
b1010100101110101100111011111001011010 +
b101010 ,
b101110101100111011111001011010 -
b101110101100111011111010000100 .
b101110101100111011111010000101 /
b101110101100111011111010000100 1
b101110101100111011111010000100 2

#100000
0!
0&

#105000
1!
b101110101100111011111010000100 %
1&
b101110101100111011111010000100 *
b1011101011111101101011011100111010000101 +
b101110101 ,
b1111101101011011100111010000101 -
b1111101101011011100111111111010 .
b1111101101011011100111111111011 /
b1111101101011011100111111111010 1
b1111101101011011100111111111010 2

#110000
0!
0&

#115000
1!
b1111101101011011100111111111010 %
1&
b1111101101011011100111111111010 *
b11111011100110100111011011011011111111011 +
b1111101110 ,
b110100111011011011011111111011 -
b110100111011011011101111101001 .
b110100111011011011101111101010 /
b110100111011011011101111101001 1
b110100111011011011101111101001 2

#120000
0!
0&

#125000
1!
b110100111011011011101111101001 %
1&
b110100111011011011101111101001 *
b1101001111101011110111010101111111101010 +
b110100111 ,
b1101011110111010101111111101010 -
b1101011110111010110000110010001 .
b1101011110111010110000110010010 /
b1101011110111010110000110010001 1
b1101011110111010110000110010001 2
